NEON Ecological Forecasting Challenge - 1 Theme: Aquatic Ecosystems
…
The R script for generating the evaluation and training data (i.e., targets) can be found at: https://github.com/eco4cast/neon4cast-aquatics

The challenge uses the following NEON data products: - DP1.20264.001: Temperature at specific depth in surface water for lakes - DP1.20288.001: Water quality (includes oxygen and chlorophyll-a)

- DP1.20035.001{target =“_blank”}: Temperature in surface waters for streams

A file with previously released NEON data that has been processed into targets is provided below. The target script can be found here. The same processing will be applied to new data that are used for forecast evaluation.

Here is the format of the target file

readr::read_csv("https://data.ecoforecast.org/neon4cast-targets/aquatics/aquatics-targets.csv.gz") |> 
  na.omit()

# A tibble: 78,788 × 4
   time       site_id variable    observed
   <date>     <chr>   <chr>          <dbl>
 1 2016-08-12 ARIK    oxygen          3.40
 2 2016-08-13 ARIK    oxygen          4.16
 3 2016-08-14 ARIK    oxygen          4.07
 4 2016-08-15 ARIK    oxygen          3.91
 5 2016-08-16 ARIK    oxygen          3.86
 6 2016-08-17 ARIK    oxygen          4.35
 7 2016-08-18 ARIK    oxygen          4.35
 8 2016-08-18 ARIK    temperature    20.6 
 9 2016-08-19 ARIK    oxygen          4.03
10 2016-08-19 ARIK    temperature    20.1 
# … with 78,778 more rows
# ℹ Use `print(n = ...)` to see more rows
…
