NEON Ecological Forecasting Challenge - 5 Theme: Beetle Communities
…
The raw data is processed to generate total abundance and richness per week per NEON site. All data in the supplied file is available to build and evaluate models before submitting a forecast to challenge. Once new data becomes available, the data are appended to the existing file. Within the challenge scoring, only the new data are used to evaluate previously submitted forecasts.

As part of our reproducible workflow, we provide an R script for producing derived tables of total abundance and richness from the raw NEON data. Our workflow gives preference to expert taxonomist identifications when available. Since expert taxonomy lags behind identifications from the sorting and pinning process, newer data will not be updated with expert taxonomy. The abundance table gives total abundance at each site for each week. The richness table gives an aggregate count of the number of ‘species’ at each site in each week.

Note: The table includes all data that NEON has collected and can be used for building and training models (new data will be posted after forecasts are submitted)

5.3.5 Target file

The code use to process the raw data to the evaluation data can be found here: https://github.com/eco4cast/neon4cast-targets/blob/main/beetles_targets.R

Here is the format of the target file

readr::read_csv("https://data.ecoforecast.org/neon4cast-targets/beetles/beetles-targets.csv.gz", guess_max = 1e6)

# A tibble: 6,882 × 5
   time       site_id variable  observed iso_week
   <date>     <chr>   <chr>        <dbl> <chr>   
 1 2016-09-12 ABBY    abundance   1.05   2016-W37
 2 2016-09-12 ABBY    richness   14      2016-W37
 3 2016-09-26 ABBY    abundance   4.45   2016-W39
 4 2016-09-26 ABBY    richness   13      2016-W39
 5 2017-05-01 ABBY    abundance   0.0554 2017-W18
 6 2017-05-01 ABBY    richness   10      2017-W18
 7 2017-05-15 ABBY    abundance   0.180  2017-W20
 8 2017-05-15 ABBY    richness   19      2017-W20
 9 2017-05-29 ABBY    abundance   0.425  2017-W22
10 2017-05-29 ABBY    richness   19      2017-W22
# … with 6,872 more rows
# ℹ Use `print(n = ...)` to see more rows
…
