NEON Ecological Forecasting Challenge - 6 Theme: Phenology
…
PhenoCam data are processed and posted daily and the low latency of the PhenoCam data allows for a unique opportunity to evaluate forecasts in real-time.

Each image has a defined “region of interest’ (ROI). An ROI is a set of pixels that isolates particular features in the image (i.e., a set of deciduous trees in a mixed forest). The ROI of the below top-of-canopy PhenoCams will be used to assess the forecasts’ accuracy. The mid-day (noon) mean GCC and GCC standard deviation for the ROI will be used for evaluation.

All data in the supplied file is available to build and evaluate models before submitting a forecast to challenge. Once new data becomes avialable, the data are appended to the existing file. Within the challenge scoring, only the new data are used to evaluate previously submitted forecasts.

6.3.5 Target file

Here is the format of the target file

readr::read_csv("https://data.ecoforecast.org/neon4cast-targets/phenology/phenology-targets.csv.gz", guess_max = 1e6) |> 
  na.omit()

# A tibble: 169,232 × 4
   datetime   site_id variable observed
   <date>     <chr>   <chr>       <dbl>
 1 2017-05-30 ABBY    gcc_90      0.417
 2 2017-05-31 ABBY    gcc_90      0.416
 3 2017-06-01 ABBY    gcc_90      0.418
 4 2017-06-02 ABBY    gcc_90      0.415
 5 2017-06-03 ABBY    gcc_90      0.422
 6 2017-06-04 ABBY    gcc_90      0.417
 7 2017-06-05 ABBY    gcc_90      0.409
 8 2017-06-06 ABBY    gcc_90      0.416
 9 2017-06-07 ABBY    gcc_90      0.426
10 2017-06-08 ABBY    gcc_90      0.430
# … with 169,222 more rows
# ℹ Use `print(n = ...)` to see more rows
…
