NEON Ecological Forecasting Challenge - 2 Theme: Terrestrial Ecosystems
…
The table with the half-hour NEE and LE has the following columns

time: YYYY-MM-DD HH:MM for the start of the 30-minute period in UTC

site_id: NEON site code (e.g., BART)

variable: nee (umol CO2 m-2 s-1) or le W m-2

observed: value for variable

Here is the download link and format of the terrestrial_30min target file:

readr::read_csv("https://data.ecoforecast.org/neon4cast-targets/terrestrial_30min/terrestrial_30min-targets.csv.gz", guess_max = 1e6)

# A tibble: 1,929,200 × 7
   time                site_id variable observed sd_intercept sd_slopeP sd_slo…¹
   <dttm>              <chr>   <chr>       <dbl>        <dbl>     <dbl>    <dbl>
 1 2017-02-01 10:00:00 BART    nee        -0.574         1.14     0.204   -0.132
 2 2017-02-01 10:30:00 BART    nee         0.297         1.14     0.204   -0.132
 3 2017-02-01 11:00:00 BART    nee        NA             1.14     0.204   -0.132
 4 2017-02-01 11:30:00 BART    nee        NA             1.14     0.204   -0.132
 5 2017-02-01 12:00:00 BART    nee         0.224         1.14     0.204   -0.132
 6 2017-02-01 12:30:00 BART    nee         2.12          1.14     0.204   -0.132
 7 2017-02-01 13:00:00 BART    nee         2.18          1.14     0.204   -0.132
 8 2017-02-01 13:30:00 BART    nee        NA             1.14     0.204   -0.132
 9 2017-02-01 14:00:00 BART    nee        NA             1.14     0.204   -0.132
10 2017-02-01 14:30:00 BART    nee        NA             1.14     0.204   -0.132
# … with 1,929,190 more rows, and abbreviated variable name ¹​sd_slopeN
# ℹ Use `print(n = ...)` to see more rows
…
time: YYYY-MM-DD (the day is determined using UTC time)

site_id: NEON site code (e.g., BART)

variable: nee (g C m-2 day-1) or le (W m-2)

observed: value for variable

Here is the download link and format of the terrestrial_daily target file

readr::read_csv("https://data.ecoforecast.org/neon4cast-targets/terrestrial_daily/terrestrial_daily-targets.csv.gz", guess_max = 1e6) |> 
  na.omit()

# A tibble: 18,708 × 4
   time       site_id variable observed
   <date>     <chr>   <chr>       <dbl>
 1 2017-02-02 BART    le          2.71 
 2 2017-02-02 BART    nee         0.580
 3 2017-02-03 BART    le          8.47 
 4 2017-02-03 BART    nee         0.687
 5 2017-02-04 BART    le          6.64 
 6 2017-02-04 BART    nee         0.693
 7 2017-02-05 BART    le          3.53 
 8 2017-02-05 BART    nee         0.912
 9 2017-02-06 BART    le         11.5  
10 2017-02-06 BART    nee         0.965
# … with 18,698 more rows
# ℹ Use `print(n = ...)` to see more rows
…
