NEON Ecological Forecasting Challenge - 3 Theme: Tick Populations
…
3.3.3 Target data calculation

Tick drags occur every three weeks at the NEON sites used in this challenge. The sampling season at each site is determined by phenological milestones, beginning and ending within two weeks of green-up and senescence, respectively. The 1m^2 cloth is dragged for 160m (and at least 80m), and ticks are collected intermittently. They are then sent to a lab for taxonomic identification. Ticks are then identified by life stage and taxonomic rank. The target data is for Amblyomma americanum nymphs that were identified to the species level; i.e. ticks identified as being in the Amblyomma genus are not included.

Use of 2021 data: The forecasting challenge is for the 2021 field season, thus environmental covariates are known. However, in the spirit of keeping this as much of a “forecasting” challenge as possible, we ask that for four week forecast period teams use the NOAA GEFS forecasting data.

3.3.4 Target file

Here is the format of the target file

readr::read_csv("https://data.ecoforecast.org/neon4cast-targets/ticks/ticks-targets.csv.gz", guess_max = 1e6)

# A tibble: 531 × 5
   time       site_id variable             observed mmwr_week
   <date>     <chr>   <chr>                   <dbl>     <dbl>
 1 2015-04-19 BLAN    amblyomma_americanum     0           16
 2 2015-05-10 BLAN    amblyomma_americanum     9.82        19
 3 2015-05-31 BLAN    amblyomma_americanum    10           22
 4 2015-06-07 BLAN    amblyomma_americanum    19.4         23
 5 2015-06-21 BLAN    amblyomma_americanum     3.14        25
 6 2015-07-12 BLAN    amblyomma_americanum     3.66        28
 7 2015-08-02 BLAN    amblyomma_americanum     0           31
 8 2015-08-23 BLAN    amblyomma_americanum     0           34
 9 2015-09-13 BLAN    amblyomma_americanum     0           37
10 2015-10-11 BLAN    amblyomma_americanum     0           41
# … with 521 more rows
# ℹ Use `print(n = ...)` to see more rows
…
